[
  {
    "codigo_collar":100028,
    "fecha_hora":1455274800000,
    "ritmo_Cardiaco":40,
    "ubicacion_actual_latitud":4.720967,
    "ubicacion_actual_longitud":-74.044357,
    "paso_puerta":"salio"
  },
  {
    "codigo_collar":100051,
    "fecha_hora":1455275100000,
    "ritmo_Cardiaco":57,
    "ubicacion_actual_latitud":4.719646,
    "ubicacion_actual_longitud":-74.045529,
    "paso_puerta":"llego"
  },
  {
    "codigo_collar":100013,
    "fecha_hora":1455275400000,
    "ritmo_Cardiaco":65,
    "ubicacion_actual_latitud":4.724709,
    "ubicacion_actual_longitud":-74.047036,
    "paso_puerta":"salio"
  },
  {
    "codigo_collar":100025,
    "fecha_hora":1455275700000,
    "ritmo_Cardiaco":41,
    "ubicacion_actual_latitud":4.721676,
    "ubicacion_actual_longitud":-74.045293,
    "paso_puerta":"llego"
  },
  {
    "codigo_collar":100005,
    "fecha_hora":1455276000000,
    "ritmo_Cardiaco":55,
    "ubicacion_actual_latitud":4.723893,
    "ubicacion_actual_longitud":-74.049199,
    "paso_puerta":"salio"
  },
  {
    "codigo_collar":100009,
    "fecha_hora":1455276300000,
    "ritmo_Cardiaco":98,
    "ubicacion_actual_latitud":4.719138,
    "ubicacion_actual_longitud":-74.048185,
    "paso_puerta":""
  },
  {
    "codigo_collar":100050,
    "fecha_hora":1455276600000,
    "ritmo_Cardiaco":81,
    "ubicacion_actual_latitud":4.722238,
    "ubicacion_actual_longitud":-74.046669,
    "paso_puerta":""
  },
  {
    "codigo_collar":100031,
    "fecha_hora":1455276900000,
    "ritmo_Cardiaco":118,
    "ubicacion_actual_latitud":4.723257,
    "ubicacion_actual_longitud":-74.044346,
    "paso_puerta":""
  },
  {
    "codigo_collar":100001,
    "fecha_hora":1455277200000,
    "ritmo_Cardiaco":109,
    "ubicacion_actual_latitud":4.719387,
    "ubicacion_actual_longitud":-74.045,
    "paso_puerta":"salio"
  },
  {
    "codigo_collar":100020,
    "fecha_hora":1455277500000,
    "ritmo_Cardiaco":73,
    "ubicacion_actual_latitud":4.720209,
    "ubicacion_actual_longitud":-74.045624,
    "paso_puerta":"salio"
  },
  {
    "codigo_collar":100051,
    "fecha_hora":1455277800000,
    "ritmo_Cardiaco":93,
    "ubicacion_actual_latitud":4.719285,
    "ubicacion_actual_longitud":-74.046568,
    "paso_puerta":""
  },
  {
    "codigo_collar":100043,
    "fecha_hora":1455278100000,
    "ritmo_Cardiaco":106,
    "ubicacion_actual_latitud":4.723739,
    "ubicacion_actual_longitud":-74.043664,
    "paso_puerta":"salio"
  },
  {
    "codigo_collar":100049,
    "fecha_hora":1455278400000,
    "ritmo_Cardiaco":120,
    "ubicacion_actual_latitud":4.718624,
    "ubicacion_actual_longitud":-74.048314,
    "paso_puerta":"salio"
  },
  {
    "codigo_collar":100014,
    "fecha_hora":1455278700000,
    "ritmo_Cardiaco":72,
    "ubicacion_actual_latitud":4.720068,
    "ubicacion_actual_longitud":-74.045245,
    "paso_puerta":""
  },
  {
    "codigo_collar":100026,
    "fecha_hora":1455279000000,
    "ritmo_Cardiaco":111,
    "ubicacion_actual_latitud":4.723715,
    "ubicacion_actual_longitud":-74.04623,
    "paso_puerta":"salio"
  },
  {
    "codigo_collar":100022,
    "fecha_hora":1455279300000,
    "ritmo_Cardiaco":105,
    "ubicacion_actual_latitud":4.719934,
    "ubicacion_actual_longitud":-74.044407,
    "paso_puerta":"llego"
  },
  {
    "codigo_collar":100007,
    "fecha_hora":1455279600000,
    "ritmo_Cardiaco":90,
    "ubicacion_actual_latitud":4.7237,
    "ubicacion_actual_longitud":-74.046497,
    "paso_puerta":"salio"
  },
  {
    "codigo_collar":100012,
    "fecha_hora":1455279900000,
    "ritmo_Cardiaco":82,
    "ubicacion_actual_latitud":4.724423,
    "ubicacion_actual_longitud":-74.044226,
    "paso_puerta":"salio"
  },
  {
    "codigo_collar":100027,
    "fecha_hora":1455280200000,
    "ritmo_Cardiaco":111,
    "ubicacion_actual_latitud":4.717891,
    "ubicacion_actual_longitud":-74.045276,
    "paso_puerta":"salio"
  },
  {
    "codigo_collar":100017,
    "fecha_hora":1455280500000,
    "ritmo_Cardiaco":71,
    "ubicacion_actual_latitud":4.721548,
    "ubicacion_actual_longitud":-74.043979,
    "paso_puerta":"llego"
  },
  {
    "codigo_collar":100006,
    "fecha_hora":1455280800000,
    "ritmo_Cardiaco":85,
    "ubicacion_actual_latitud":4.719988,
    "ubicacion_actual_longitud":-74.050047,
    "paso_puerta":"llego"
  },
  {
    "codigo_collar":100037,
    "fecha_hora":1455281100000,
    "ritmo_Cardiaco":92,
    "ubicacion_actual_latitud":4.72168,
    "ubicacion_actual_longitud":-74.048832,
    "paso_puerta":"llego"
  },
  {
    "codigo_collar":100057,
    "fecha_hora":1455281400000,
    "ritmo_Cardiaco":84,
    "ubicacion_actual_latitud":4.721602,
    "ubicacion_actual_longitud":-74.047416,
    "paso_puerta":"salio"
  },
  {
    "codigo_collar":100024,
    "fecha_hora":1455281700000,
    "ritmo_Cardiaco":101,
    "ubicacion_actual_latitud":4.718423,
    "ubicacion_actual_longitud":-74.047846,
    "paso_puerta":""
  },
  {
    "codigo_collar":100028,
    "fecha_hora":1455282000000,
    "ritmo_Cardiaco":103,
    "ubicacion_actual_latitud":4.720404,
    "ubicacion_actual_longitud":-74.047012,
    "paso_puerta":""
  },
  {
    "codigo_collar":100054,
    "fecha_hora":1455282300000,
    "ritmo_Cardiaco":70,
    "ubicacion_actual_latitud":4.723097,
    "ubicacion_actual_longitud":-74.045352,
    "paso_puerta":"llego"
  },
  {
    "codigo_collar":100016,
    "fecha_hora":1455282600000,
    "ritmo_Cardiaco":67,
    "ubicacion_actual_latitud":4.719706,
    "ubicacion_actual_longitud":-74.045976,
    "paso_puerta":"llego"
  },
  {
    "codigo_collar":100042,
    "fecha_hora":1455282900000,
    "ritmo_Cardiaco":63,
    "ubicacion_actual_latitud":4.722868,
    "ubicacion_actual_longitud":-74.047593,
    "paso_puerta":"salio"
  },
  {
    "codigo_collar":100041,
    "fecha_hora":1455283200000,
    "ritmo_Cardiaco":117,
    "ubicacion_actual_latitud":4.721915,
    "ubicacion_actual_longitud":-74.047119,
    "paso_puerta":"salio"
  },
  {
    "codigo_collar":100020,
    "fecha_hora":1455283500000,
    "ritmo_Cardiaco":66,
    "ubicacion_actual_latitud":4.720907,
    "ubicacion_actual_longitud":-74.047187,
    "paso_puerta":""
  },
  {
    "codigo_collar":100008,
    "fecha_hora":1455283800000,
    "ritmo_Cardiaco":102,
    "ubicacion_actual_latitud":4.720571,
    "ubicacion_actual_longitud":-74.048411,
    "paso_puerta":"llego"
  },
  {
    "codigo_collar":100014,
    "fecha_hora":1455284100000,
    "ritmo_Cardiaco":70,
    "ubicacion_actual_latitud":4.718661,
    "ubicacion_actual_longitud":-74.044499,
    "paso_puerta":"salio"
  },
  {
    "codigo_collar":100057,
    "fecha_hora":1455284400000,
    "ritmo_Cardiaco":64,
    "ubicacion_actual_latitud":4.718119,
    "ubicacion_actual_longitud":-74.043774,
    "paso_puerta":""
  },
  {
    "codigo_collar":100027,
    "fecha_hora":1455284700000,
    "ritmo_Cardiaco":66,
    "ubicacion_actual_latitud":4.72023,
    "ubicacion_actual_longitud":-74.049173,
    "paso_puerta":""
  },
  {
    "codigo_collar":100001,
    "fecha_hora":1455285000000,
    "ritmo_Cardiaco":100,
    "ubicacion_actual_latitud":4.7233,
    "ubicacion_actual_longitud":-74.045828,
    "paso_puerta":"llego"
  },
  {
    "codigo_collar":100038,
    "fecha_hora":1455285300000,
    "ritmo_Cardiaco":78,
    "ubicacion_actual_latitud":4.723335,
    "ubicacion_actual_longitud":-74.044869,
    "paso_puerta":""
  },
  {
    "codigo_collar":100023,
    "fecha_hora":1455285600000,
    "ritmo_Cardiaco":83,
    "ubicacion_actual_latitud":4.718309,
    "ubicacion_actual_longitud":-74.046006,
    "paso_puerta":"llego"
  },
  {
    "codigo_collar":100052,
    "fecha_hora":1455285900000,
    "ritmo_Cardiaco":58,
    "ubicacion_actual_latitud":4.723351,
    "ubicacion_actual_longitud":-74.046297,
    "paso_puerta":"llego"
  },
  {
    "codigo_collar":100040,
    "fecha_hora":1455286200000,
    "ritmo_Cardiaco":39,
    "ubicacion_actual_latitud":4.721725,
    "ubicacion_actual_longitud":-74.047618,
    "paso_puerta":"salio"
  },
  {
    "codigo_collar":100041,
    "fecha_hora":1455286500000,
    "ritmo_Cardiaco":87,
    "ubicacion_actual_latitud":4.723021,
    "ubicacion_actual_longitud":-74.046548,
    "paso_puerta":"salio"
  },
  {
    "codigo_collar":100032,
    "fecha_hora":1455286800000,
    "ritmo_Cardiaco":52,
    "ubicacion_actual_latitud":4.720002,
    "ubicacion_actual_longitud":-74.045985,
    "paso_puerta":"llego"
  },
  {
    "codigo_collar":100015,
    "fecha_hora":1455287100000,
    "ritmo_Cardiaco":102,
    "ubicacion_actual_latitud":4.724148,
    "ubicacion_actual_longitud":-74.049901,
    "paso_puerta":"llego"
  },
  {
    "codigo_collar":100023,
    "fecha_hora":1455287400000,
    "ritmo_Cardiaco":86,
    "ubicacion_actual_latitud":4.720954,
    "ubicacion_actual_longitud":-74.047012,
    "paso_puerta":""
  },
  {
    "codigo_collar":100051,
    "fecha_hora":1455287700000,
    "ritmo_Cardiaco":47,
    "ubicacion_actual_latitud":4.724198,
    "ubicacion_actual_longitud":-74.046805,
    "paso_puerta":""
  },
  {
    "codigo_collar":100049,
    "fecha_hora":1455288000000,
    "ritmo_Cardiaco":103,
    "ubicacion_actual_latitud":4.72304,
    "ubicacion_actual_longitud":-74.045498,
    "paso_puerta":"salio"
  },
  {
    "codigo_collar":100012,
    "fecha_hora":1455288300000,
    "ritmo_Cardiaco":96,
    "ubicacion_actual_latitud":4.720622,
    "ubicacion_actual_longitud":-74.048569,
    "paso_puerta":"llego"
  },
  {
    "codigo_collar":100007,
    "fecha_hora":1455288600000,
    "ritmo_Cardiaco":66,
    "ubicacion_actual_latitud":4.721516,
    "ubicacion_actual_longitud":-74.044261,
    "paso_puerta":"llego"
  },
  {
    "codigo_collar":100003,
    "fecha_hora":1455288900000,
    "ritmo_Cardiaco":70,
    "ubicacion_actual_latitud":4.717806,
    "ubicacion_actual_longitud":-74.049626,
    "paso_puerta":""
  },
  {
    "codigo_collar":100038,
    "fecha_hora":1455289200000,
    "ritmo_Cardiaco":119,
    "ubicacion_actual_latitud":4.719215,
    "ubicacion_actual_longitud":-74.048935,
    "paso_puerta":"salio"
  },
  {
    "codigo_collar":100044,
    "fecha_hora":1455289500000,
    "ritmo_Cardiaco":103,
    "ubicacion_actual_latitud":4.721011,
    "ubicacion_actual_longitud":-74.044017,
    "paso_puerta":""
  },
  {
    "codigo_collar":100001,
    "fecha_hora":1455289800000,
    "ritmo_Cardiaco":83,
    "ubicacion_actual_latitud":4.722819,
    "ubicacion_actual_longitud":-74.04747,
    "paso_puerta":"llego"
  },
  {
    "codigo_collar":100046,
    "fecha_hora":1455290100000,
    "ritmo_Cardiaco":89,
    "ubicacion_actual_latitud":4.717619,
    "ubicacion_actual_longitud":-74.050209,
    "paso_puerta":""
  },
  {
    "codigo_collar":100041,
    "fecha_hora":1455290400000,
    "ritmo_Cardiaco":42,
    "ubicacion_actual_latitud":4.723998,
    "ubicacion_actual_longitud":-74.046859,
    "paso_puerta":""
  },
  {
    "codigo_collar":100010,
    "fecha_hora":1455290700000,
    "ritmo_Cardiaco":98,
    "ubicacion_actual_latitud":4.720726,
    "ubicacion_actual_longitud":-74.044758,
    "paso_puerta":"llego"
  },
  {
    "codigo_collar":100015,
    "fecha_hora":1455291000000,
    "ritmo_Cardiaco":60,
    "ubicacion_actual_latitud":4.720565,
    "ubicacion_actual_longitud":-74.047908,
    "paso_puerta":"salio"
  },
  {
    "codigo_collar":100045,
    "fecha_hora":1455291300000,
    "ritmo_Cardiaco":110,
    "ubicacion_actual_latitud":4.724181,
    "ubicacion_actual_longitud":-74.043808,
    "paso_puerta":""
  },
  {
    "codigo_collar":100053,
    "fecha_hora":1455291600000,
    "ritmo_Cardiaco":42,
    "ubicacion_actual_latitud":4.718454,
    "ubicacion_actual_longitud":-74.044925,
    "paso_puerta":"salio"
  },
  {
    "codigo_collar":100038,
    "fecha_hora":1455291900000,
    "ritmo_Cardiaco":62,
    "ubicacion_actual_latitud":4.722366,
    "ubicacion_actual_longitud":-74.047395,
    "paso_puerta":"llego"
  },
  {
    "codigo_collar":100037,
    "fecha_hora":1455292200000,
    "ritmo_Cardiaco":73,
    "ubicacion_actual_latitud":4.718903,
    "ubicacion_actual_longitud":-74.044581,
    "paso_puerta":"salio"
  },
  {
    "codigo_collar":100025,
    "fecha_hora":1455292500000,
    "ritmo_Cardiaco":95,
    "ubicacion_actual_latitud":4.721755,
    "ubicacion_actual_longitud":-74.048944,
    "paso_puerta":"salio"
  },
  {
    "codigo_collar":100051,
    "fecha_hora":1455292800000,
    "ritmo_Cardiaco":94,
    "ubicacion_actual_latitud":4.719976,
    "ubicacion_actual_longitud":-74.043758,
    "paso_puerta":""
  },
  {
    "codigo_collar":100052,
    "fecha_hora":1455293100000,
    "ritmo_Cardiaco":77,
    "ubicacion_actual_latitud":4.723348,
    "ubicacion_actual_longitud":-74.048127,
    "paso_puerta":"salio"
  },
  {
    "codigo_collar":100052,
    "fecha_hora":1455293400000,
    "ritmo_Cardiaco":118,
    "ubicacion_actual_latitud":4.724301,
    "ubicacion_actual_longitud":-74.045434,
    "paso_puerta":"salio"
  },
  {
    "codigo_collar":100014,
    "fecha_hora":1455293700000,
    "ritmo_Cardiaco":88,
    "ubicacion_actual_latitud":4.719365,
    "ubicacion_actual_longitud":-74.043743,
    "paso_puerta":""
  },
  {
    "codigo_collar":100035,
    "fecha_hora":1455294000000,
    "ritmo_Cardiaco":106,
    "ubicacion_actual_latitud":4.720922,
    "ubicacion_actual_longitud":-74.047672,
    "paso_puerta":"llego"
  },
  {
    "codigo_collar":100025,
    "fecha_hora":1455294300000,
    "ritmo_Cardiaco":51,
    "ubicacion_actual_latitud":4.721038,
    "ubicacion_actual_longitud":-74.045769,
    "paso_puerta":"llego"
  },
  {
    "codigo_collar":100056,
    "fecha_hora":1455294600000,
    "ritmo_Cardiaco":118,
    "ubicacion_actual_latitud":4.719569,
    "ubicacion_actual_longitud":-74.044121,
    "paso_puerta":""
  },
  {
    "codigo_collar":100053,
    "fecha_hora":1455294900000,
    "ritmo_Cardiaco":104,
    "ubicacion_actual_latitud":4.724071,
    "ubicacion_actual_longitud":-74.046003,
    "paso_puerta":"salio"
  },
  {
    "codigo_collar":100025,
    "fecha_hora":1455295200000,
    "ritmo_Cardiaco":70,
    "ubicacion_actual_latitud":4.717914,
    "ubicacion_actual_longitud":-74.045144,
    "paso_puerta":"salio"
  },
  {
    "codigo_collar":100026,
    "fecha_hora":1455295500000,
    "ritmo_Cardiaco":43,
    "ubicacion_actual_latitud":4.722424,
    "ubicacion_actual_longitud":-74.044303,
    "paso_puerta":"llego"
  }
]
