[
  {
    "codigo_collar":100035,
    "fecha_hora":1455188400000,
    "ritmo_Cardiaco":262,
    "ubicacion_actual_latitud":4.718511,
    "ubicacion_actual_longitud":-74.037854,
    "paso_puerta":""
  },
  {
    "codigo_collar":100054,
    "fecha_hora":1455188700000,
    "ritmo_Cardiaco":278,
    "ubicacion_actual_latitud":4.719653,
    "ubicacion_actual_longitud":-74.046146,
    "paso_puerta":""
  },
  {
    "codigo_collar":100036,
    "fecha_hora":1455189000000,
    "ritmo_Cardiaco":200,
    "ubicacion_actual_latitud":4.717845,
    "ubicacion_actual_longitud":-74.038826,
    "paso_puerta":"salio"
  },
  {
    "codigo_collar":100016,
    "fecha_hora":1455189300000,
    "ritmo_Cardiaco":327,
    "ubicacion_actual_latitud":4.720285,
    "ubicacion_actual_longitud":-74.044449,
    "paso_puerta":"salio"
  },
  {
    "codigo_collar":100041,
    "fecha_hora":1455189600000,
    "ritmo_Cardiaco":80,
    "ubicacion_actual_latitud":4.722812,
    "ubicacion_actual_longitud":-74.045439,
    "paso_puerta":""
  },
  {
    "codigo_collar":100048,
    "fecha_hora":1455189900000,
    "ritmo_Cardiaco":119,
    "ubicacion_actual_latitud":4.723176,
    "ubicacion_actual_longitud":-74.049743,
    "paso_puerta":"salio"
  },
  {
    "codigo_collar":100007,
    "fecha_hora":1455190200000,
    "ritmo_Cardiaco":308,
    "ubicacion_actual_latitud":4.719673,
    "ubicacion_actual_longitud":-74.041003,
    "paso_puerta":"llego"
  },
  {
    "codigo_collar":100032,
    "fecha_hora":1455190500000,
    "ritmo_Cardiaco":140,
    "ubicacion_actual_latitud":4.724697,
    "ubicacion_actual_longitud":-74.045132,
    "paso_puerta":"llego"
  },
  {
    "codigo_collar":100021,
    "fecha_hora":1455190800000,
    "ritmo_Cardiaco":258,
    "ubicacion_actual_latitud":4.721023,
    "ubicacion_actual_longitud":-74.048175,
    "paso_puerta":""
  },
  {
    "codigo_collar":100027,
    "fecha_hora":1455191100000,
    "ritmo_Cardiaco":185,
    "ubicacion_actual_latitud":4.722681,
    "ubicacion_actual_longitud":-74.041593,
    "paso_puerta":"salio"
  },
  {
    "codigo_collar":100024,
    "fecha_hora":1455191400000,
    "ritmo_Cardiaco":75,
    "ubicacion_actual_latitud":4.72016,
    "ubicacion_actual_longitud":-74.045146,
    "paso_puerta":""
  },
  {
    "codigo_collar":100006,
    "fecha_hora":1455191700000,
    "ritmo_Cardiaco":155,
    "ubicacion_actual_latitud":4.720164,
    "ubicacion_actual_longitud":-74.048364,
    "paso_puerta":""
  },
  {
    "codigo_collar":100019,
    "fecha_hora":1455192000000,
    "ritmo_Cardiaco":201,
    "ubicacion_actual_latitud":4.721531,
    "ubicacion_actual_longitud":-74.046556,
    "paso_puerta":"llego"
  },
  {
    "codigo_collar":100048,
    "fecha_hora":1455192300000,
    "ritmo_Cardiaco":213,
    "ubicacion_actual_latitud":4.723575,
    "ubicacion_actual_longitud":-74.046023,
    "paso_puerta":""
  },
  {
    "codigo_collar":100032,
    "fecha_hora":1455192600000,
    "ritmo_Cardiaco":349,
    "ubicacion_actual_latitud":4.722122,
    "ubicacion_actual_longitud":-74.039844,
    "paso_puerta":""
  },
  {
    "codigo_collar":100058,
    "fecha_hora":1455192900000,
    "ritmo_Cardiaco":244,
    "ubicacion_actual_latitud":4.720913,
    "ubicacion_actual_longitud":-74.043486,
    "paso_puerta":"salio"
  },
  {
    "codigo_collar":100022,
    "fecha_hora":1455193200000,
    "ritmo_Cardiaco":36,
    "ubicacion_actual_latitud":4.720694,
    "ubicacion_actual_longitud":-74.040942,
    "paso_puerta":"llego"
  },
  {
    "codigo_collar":100005,
    "fecha_hora":1455193500000,
    "ritmo_Cardiaco":244,
    "ubicacion_actual_latitud":4.721344,
    "ubicacion_actual_longitud":-74.043537,
    "paso_puerta":"llego"
  },
  {
    "codigo_collar":100030,
    "fecha_hora":1455193800000,
    "ritmo_Cardiaco":253,
    "ubicacion_actual_latitud":4.71936,
    "ubicacion_actual_longitud":-74.038803,
    "paso_puerta":"salio"
  },
  {
    "codigo_collar":100039,
    "fecha_hora":1455194100000,
    "ritmo_Cardiaco":55,
    "ubicacion_actual_latitud":4.720332,
    "ubicacion_actual_longitud":-74.034583,
    "paso_puerta":"llego"
  },
  {
    "codigo_collar":100034,
    "fecha_hora":1455194400000,
    "ritmo_Cardiaco":153,
    "ubicacion_actual_latitud":4.720693,
    "ubicacion_actual_longitud":-74.043977,
    "paso_puerta":"llego"
  },
  {
    "codigo_collar":100003,
    "fecha_hora":1455194700000,
    "ritmo_Cardiaco":250,
    "ubicacion_actual_latitud":4.721233,
    "ubicacion_actual_longitud":-74.035534,
    "paso_puerta":"llego"
  },
  {
    "codigo_collar":100052,
    "fecha_hora":1455195000000,
    "ritmo_Cardiaco":160,
    "ubicacion_actual_latitud":4.722231,
    "ubicacion_actual_longitud":-74.047688,
    "paso_puerta":"salio"
  },
  {
    "codigo_collar":100031,
    "fecha_hora":1455195300000,
    "ritmo_Cardiaco":308,
    "ubicacion_actual_latitud":4.722619,
    "ubicacion_actual_longitud":-74.04003,
    "paso_puerta":"llego"
  },
  {
    "codigo_collar":100056,
    "fecha_hora":1455195600000,
    "ritmo_Cardiaco":212,
    "ubicacion_actual_latitud":4.719052,
    "ubicacion_actual_longitud":-74.037893,
    "paso_puerta":""
  },
  {
    "codigo_collar":100025,
    "fecha_hora":1455195900000,
    "ritmo_Cardiaco":313,
    "ubicacion_actual_latitud":4.71915,
    "ubicacion_actual_longitud":-74.040732,
    "paso_puerta":"llego"
  },
  {
    "codigo_collar":100050,
    "fecha_hora":1455196200000,
    "ritmo_Cardiaco":212,
    "ubicacion_actual_latitud":4.71845,
    "ubicacion_actual_longitud":-74.042294,
    "paso_puerta":"llego"
  },
  {
    "codigo_collar":100024,
    "fecha_hora":1455196500000,
    "ritmo_Cardiaco":91,
    "ubicacion_actual_latitud":4.723362,
    "ubicacion_actual_longitud":-74.047438,
    "paso_puerta":"llego"
  },
  {
    "codigo_collar":100040,
    "fecha_hora":1455196800000,
    "ritmo_Cardiaco":249,
    "ubicacion_actual_latitud":4.723203,
    "ubicacion_actual_longitud":-74.038485,
    "paso_puerta":""
  },
  {
    "codigo_collar":100009,
    "fecha_hora":1455197100000,
    "ritmo_Cardiaco":347,
    "ubicacion_actual_latitud":4.719377,
    "ubicacion_actual_longitud":-74.040685,
    "paso_puerta":"llego"
  },
  {
    "codigo_collar":100026,
    "fecha_hora":1455197400000,
    "ritmo_Cardiaco":85,
    "ubicacion_actual_latitud":4.720896,
    "ubicacion_actual_longitud":-74.038846,
    "paso_puerta":"llego"
  },
  {
    "codigo_collar":100036,
    "fecha_hora":1455197700000,
    "ritmo_Cardiaco":209,
    "ubicacion_actual_latitud":4.721271,
    "ubicacion_actual_longitud":-74.048981,
    "paso_puerta":"llego"
  },
  {
    "codigo_collar":100004,
    "fecha_hora":1455198000000,
    "ritmo_Cardiaco":119,
    "ubicacion_actual_latitud":4.717776,
    "ubicacion_actual_longitud":-74.037853,
    "paso_puerta":"salio"
  },
  {
    "codigo_collar":100044,
    "fecha_hora":1455198300000,
    "ritmo_Cardiaco":233,
    "ubicacion_actual_latitud":4.721273,
    "ubicacion_actual_longitud":-74.046665,
    "paso_puerta":"llego"
  },
  {
    "codigo_collar":100027,
    "fecha_hora":1455198600000,
    "ritmo_Cardiaco":187,
    "ubicacion_actual_latitud":4.720232,
    "ubicacion_actual_longitud":-74.04909,
    "paso_puerta":""
  },
  {
    "codigo_collar":100052,
    "fecha_hora":1455198900000,
    "ritmo_Cardiaco":99,
    "ubicacion_actual_latitud":4.722637,
    "ubicacion_actual_longitud":-74.043867,
    "paso_puerta":"salio"
  },
  {
    "codigo_collar":100048,
    "fecha_hora":1455199200000,
    "ritmo_Cardiaco":26,
    "ubicacion_actual_latitud":4.723527,
    "ubicacion_actual_longitud":-74.046621,
    "paso_puerta":"llego"
  },
  {
    "codigo_collar":100005,
    "fecha_hora":1455199500000,
    "ritmo_Cardiaco":113,
    "ubicacion_actual_latitud":4.720831,
    "ubicacion_actual_longitud":-74.042532,
    "paso_puerta":"salio"
  },
  {
    "codigo_collar":100025,
    "fecha_hora":1455199800000,
    "ritmo_Cardiaco":124,
    "ubicacion_actual_latitud":4.719808,
    "ubicacion_actual_longitud":-74.039724,
    "paso_puerta":""
  },
  {
    "codigo_collar":100019,
    "fecha_hora":1455200100000,
    "ritmo_Cardiaco":186,
    "ubicacion_actual_latitud":4.720546,
    "ubicacion_actual_longitud":-74.03458,
    "paso_puerta":"salio"
  },
  {
    "codigo_collar":100049,
    "fecha_hora":1455200400000,
    "ritmo_Cardiaco":67,
    "ubicacion_actual_latitud":4.719106,
    "ubicacion_actual_longitud":-74.039442,
    "paso_puerta":"salio"
  },
  {
    "codigo_collar":100047,
    "fecha_hora":1455200700000,
    "ritmo_Cardiaco":142,
    "ubicacion_actual_latitud":4.720502,
    "ubicacion_actual_longitud":-74.040604,
    "paso_puerta":"llego"
  },
  {
    "codigo_collar":100052,
    "fecha_hora":1455201000000,
    "ritmo_Cardiaco":74,
    "ubicacion_actual_latitud":4.723002,
    "ubicacion_actual_longitud":-74.043758,
    "paso_puerta":"llego"
  },
  {
    "codigo_collar":100003,
    "fecha_hora":1455201300000,
    "ritmo_Cardiaco":115,
    "ubicacion_actual_latitud":4.721325,
    "ubicacion_actual_longitud":-74.042166,
    "paso_puerta":"salio"
  },
  {
    "codigo_collar":100007,
    "fecha_hora":1455201600000,
    "ritmo_Cardiaco":217,
    "ubicacion_actual_latitud":4.719876,
    "ubicacion_actual_longitud":-74.049579,
    "paso_puerta":"llego"
  },
  {
    "codigo_collar":100023,
    "fecha_hora":1455201900000,
    "ritmo_Cardiaco":302,
    "ubicacion_actual_latitud":4.724094,
    "ubicacion_actual_longitud":-74.035571,
    "paso_puerta":""
  },
  {
    "codigo_collar":100017,
    "fecha_hora":1455202200000,
    "ritmo_Cardiaco":345,
    "ubicacion_actual_latitud":4.717673,
    "ubicacion_actual_longitud":-74.039859,
    "paso_puerta":"llego"
  },
  {
    "codigo_collar":100009,
    "fecha_hora":1455202500000,
    "ritmo_Cardiaco":38,
    "ubicacion_actual_latitud":4.720364,
    "ubicacion_actual_longitud":-74.041165,
    "paso_puerta":""
  },
  {
    "codigo_collar":100030,
    "fecha_hora":1455202800000,
    "ritmo_Cardiaco":93,
    "ubicacion_actual_latitud":4.72367,
    "ubicacion_actual_longitud":-74.038028,
    "paso_puerta":"salio"
  },
  {
    "codigo_collar":100032,
    "fecha_hora":1455203100000,
    "ritmo_Cardiaco":152,
    "ubicacion_actual_latitud":4.724135,
    "ubicacion_actual_longitud":-74.044032,
    "paso_puerta":"salio"
  },
  {
    "codigo_collar":100054,
    "fecha_hora":1455203400000,
    "ritmo_Cardiaco":237,
    "ubicacion_actual_latitud":4.723158,
    "ubicacion_actual_longitud":-74.044417,
    "paso_puerta":"salio"
  },
  {
    "codigo_collar":100035,
    "fecha_hora":1455203700000,
    "ritmo_Cardiaco":60,
    "ubicacion_actual_latitud":4.718888,
    "ubicacion_actual_longitud":-74.046757,
    "paso_puerta":"salio"
  },
  {
    "codigo_collar":100021,
    "fecha_hora":1455204000000,
    "ritmo_Cardiaco":75,
    "ubicacion_actual_latitud":4.722491,
    "ubicacion_actual_longitud":-74.043001,
    "paso_puerta":"salio"
  },
  {
    "codigo_collar":100018,
    "fecha_hora":1455204300000,
    "ritmo_Cardiaco":312,
    "ubicacion_actual_latitud":4.717718,
    "ubicacion_actual_longitud":-74.044593,
    "paso_puerta":"llego"
  },
  {
    "codigo_collar":100052,
    "fecha_hora":1455204600000,
    "ritmo_Cardiaco":244,
    "ubicacion_actual_latitud":4.721339,
    "ubicacion_actual_longitud":-74.041142,
    "paso_puerta":"salio"
  },
  {
    "codigo_collar":100024,
    "fecha_hora":1455204900000,
    "ritmo_Cardiaco":112,
    "ubicacion_actual_latitud":4.724313,
    "ubicacion_actual_longitud":-74.043234,
    "paso_puerta":"llego"
  },
  {
    "codigo_collar":100036,
    "fecha_hora":1455205200000,
    "ritmo_Cardiaco":302,
    "ubicacion_actual_latitud":4.724544,
    "ubicacion_actual_longitud":-74.039658,
    "paso_puerta":"llego"
  },
  {
    "codigo_collar":100026,
    "fecha_hora":1455205500000,
    "ritmo_Cardiaco":266,
    "ubicacion_actual_latitud":4.722887,
    "ubicacion_actual_longitud":-74.041781,
    "paso_puerta":""
  },
  {
    "codigo_collar":100058,
    "fecha_hora":1455205800000,
    "ritmo_Cardiaco":37,
    "ubicacion_actual_latitud":4.724816,
    "ubicacion_actual_longitud":-74.036753,
    "paso_puerta":"llego"
  },
  {
    "codigo_collar":100005,
    "fecha_hora":1455206100000,
    "ritmo_Cardiaco":125,
    "ubicacion_actual_latitud":4.724067,
    "ubicacion_actual_longitud":-74.045189,
    "paso_puerta":"llego"
  },
  {
    "codigo_collar":100051,
    "fecha_hora":1455206400000,
    "ritmo_Cardiaco":322,
    "ubicacion_actual_latitud":4.72012,
    "ubicacion_actual_longitud":-74.040395,
    "paso_puerta":"salio"
  },
  {
    "codigo_collar":100030,
    "fecha_hora":1455206700000,
    "ritmo_Cardiaco":300,
    "ubicacion_actual_latitud":4.717927,
    "ubicacion_actual_longitud":-74.039512,
    "paso_puerta":"salio"
  },
  {
    "codigo_collar":100043,
    "fecha_hora":1455207000000,
    "ritmo_Cardiaco":105,
    "ubicacion_actual_latitud":4.722522,
    "ubicacion_actual_longitud":-74.045345,
    "paso_puerta":"salio"
  },
  {
    "codigo_collar":100057,
    "fecha_hora":1455207300000,
    "ritmo_Cardiaco":279,
    "ubicacion_actual_latitud":4.723229,
    "ubicacion_actual_longitud":-74.037253,
    "paso_puerta":""
  },
  {
    "codigo_collar":100007,
    "fecha_hora":1455207600000,
    "ritmo_Cardiaco":326,
    "ubicacion_actual_latitud":4.719205,
    "ubicacion_actual_longitud":-74.04893,
    "paso_puerta":""
  },
  {
    "codigo_collar":100013,
    "fecha_hora":1455207900000,
    "ritmo_Cardiaco":156,
    "ubicacion_actual_latitud":4.718394,
    "ubicacion_actual_longitud":-74.038125,
    "paso_puerta":""
  },
  {
    "codigo_collar":100036,
    "fecha_hora":1455208200000,
    "ritmo_Cardiaco":146,
    "ubicacion_actual_latitud":4.722833,
    "ubicacion_actual_longitud":-74.045481,
    "paso_puerta":""
  },
  {
    "codigo_collar":100033,
    "fecha_hora":1455208500000,
    "ritmo_Cardiaco":41,
    "ubicacion_actual_latitud":4.720974,
    "ubicacion_actual_longitud":-74.044121,
    "paso_puerta":"salio"
  },
  {
    "codigo_collar":100011,
    "fecha_hora":1455208800000,
    "ritmo_Cardiaco":40,
    "ubicacion_actual_latitud":4.718117,
    "ubicacion_actual_longitud":-74.042791,
    "paso_puerta":""
  },
  {
    "codigo_collar":100019,
    "fecha_hora":1455209100000,
    "ritmo_Cardiaco":77,
    "ubicacion_actual_latitud":4.720417,
    "ubicacion_actual_longitud":-74.036415,
    "paso_puerta":""
  }
]
